699336
625797
580323
89624
452886
861308
779331
702319
6845161346490
659976351729
6202571253510
2568602491073
414978815373
3245590120718
196423893202
2871698087808
1-091036
1-097044
1139-183
1196-670
1--290-029
2--033-080
2-042--020
2-059--048
2--082--284
2--945--297
3-9-076
3-4-064
3-885-00
4-034-0
4-0-14
4-349-01
5-0512342-134
5-4243443-056
5-860-3214234
6-097-50923444
0-340-979
6-000-522
7-021-000
12-045-659
35-715-037
3233-013-087
8-045-806--
8-055-645-
--8-725-922
8-732a-034
9-035-064a
9a070aa071
9-070-1a88a
0-107-231
A-824-919
AA-048-5734
00-160-3291
1-5026-0
1--056
abcd
000
2-8105-000014
3-abc-5346
3-074-abcd
3-000-3426
4-051-0000
a-282-8760
1-000-000
